{
	"modules": [
		{
			"number": 100,
			"title": "Getting Started",
			"releaseDate": "2023-03-13",
			"updatedDate": "2023-03-13",
			"slts": [
				{
					"id": "100.1",
					"slt": "I can connect a Cardano wallet to the pre-production test network."
				},
				{
					"id": "100.2",
					"slt": "I can get free tAda on the pre-production testnet."
				},
				{
					"id": "100.3",
					"slt": "I know how to safely store my keys."
				},
				{
					"id": "100.4",
					"slt": "I can mint a PPBL Contributor Token."
				}
			],
			"lessons": [
				{
					"slug": "slts",
					"name": "Module 100 Overview + SLTs",
					"video": "",
					"path": ""
				},
				{
					"slug": "1001",
					"name": "Lesson 1: Connect a Wallet to Cardano Preprod",
					"video": "pjdXKsRXtzw",
					"path": ""
				},
				{
					"slug": "1002",
					"name": "Lesson 2: Get tAda from Preprod Faucet",
					"video": "CnXzI4B_pmU",
					"path": ""
				},
				{
					"slug": "1003",
					"name": "Lesson 3: Securing your private keys",
					"video": "bFrBf7IJmWo",
					"path": ""
				},
				{
					"slug": "1004",
					"name": "Lesson 4: Get your PPBL 2023 Token",
					"video": "tD5hVDC06iM",
					"path": ""
				}
			]
		},
		{
			"number": 101,
			"title": "Write Your First Smart Contract",
			"releaseDate": "2023-03-20",
			"updatedDate": "2023-05-04",
			"slts": [
				{
					"id": "101.1",
					"slt": "I can compile a validator to Untyped Plutus Core (UPLC)."
				},
				{
					"id": "101.2",
					"slt": "I understand the role that UPLC plays in a decentralized application on Cardano."
				},
				{
					"id": "101.3",
					"slt": "I can use Demeter.run to compile a .plutus script."
				},
				{
					"id": "101.4",
					"slt": "I can set up a local Plutus development environment using nix, and use it to compile a .plutus script."
				},
				{
					"id": "101.5",
					"slt": "I can write an \"always succeeds\" validator script in Aiken."
				},
				{
					"id": "101.6",
					"slt": "I can write an \"always succeeds\" validator script in Plu-TS."
				},
				{
					"id": "101.7",
					"slt": "I can write an \"always succeeds\" validator script in OpShin."
				}
			],
			"lessons": [
				{
					"slug": "slts",
					"name": "Student Learning Targets",
					"video": "",
					"path": ""
				},
				{
					"slug": "1011",
					"name": "Lesson 1: Compiling Plutus Scripts",
					"video": "",
					"path": ""
				},
				{
					"slug": "1012",
					"name": "Lesson 2: The role of UPLC",
					"video": "",
					"path": ""
				},
				{
					"slug": "1013",
					"name": "Lesson 3: Demeter.run and PlutusTx",
					"video": "",
					"path": ""
				},
				{
					"slug": "1014",
					"name": "Lesson 4: PlutusTx in a local environment",
					"video": "",
					"path": ""
				},
				{
					"slug": "1015",
					"name": "Lesson 5: Aiken",
					"video": "",
					"path": ""
				},
				{
					"slug": "1016",
					"name": "Lesson 6: Plu-TS",
					"video": "",
					"path": ""
				},
				{
					"slug": "1017",
					"name": "Lesson 7: OpShin",
					"video": "",
					"path": ""
				},
				{
					"slug": "summary",
					"name": "Module 101 Summary",
					"video": "",
					"path": ""
				}
			]
		},
		{
			"number": 102,
			"title": "Build Your First Transactions",
			"releaseDate": "2023-03-27",
			"updatedDate": "2023-03-27",
			"slts": [
				{
					"id": "102.1",
					"slt": "I can query the blockchain using cardano-cli."
				},
				{
					"id": "102.2",
					"slt": "I can create a wallet using cardano-cli."
				},
				{
					"id": "102.3",
					"slt": "I can build a simple transaction using cardano-cli."
				},
				{
					"id": "102.4",
					"slt": "I can lock funds at a contract address using cardano-cli."
				},
				{
					"id": "102.5",
					"slt": "I can unlock funds from a contract address using cardano-cli."
				},
				{
					"id": "102.6",
					"slt": "I can use bash scripts to build re-usable transactions."
				}
			],
			"lessons": [
				{
					"slug": "slts",
					"name": "Student Learning Targets",
					"video": "",
					"path": ""
				},
				{
					"slug": "1021",
					"name": "Lesson 1: Introducing cardano-cli",
					"video": "",
					"path": ""
				},
				{
					"slug": "1022",
					"name": "Lesson 2: Build an Address",
					"video": "",
					"path": ""
				},
				{
					"slug": "1023",
					"name": "Lesson 3: Build a Simple Transaction",
					"video": "",
					"path": ""
				},
				{
					"slug": "assignment1021",
					"name": "Mastery Assignment: Build Two Transactions",
					"video": "",
					"path": ""
				},
				{
					"slug": "1024",
					"name": "Lesson 4: Lock tokens at a contract address",
					"video": "",
					"path": ""
				},
				{
					"slug": "1025",
					"name": "Lesson 5: Unlock tokens from a contract address",
					"video": "",
					"path": ""
				},
				{
					"slug": "assignment1022",
					"name": "Mastery Assignment: Change Your Lucky Number",
					"video": "",
					"path": ""
				},
				{
					"slug": "1026",
					"name": "Lesson 6: Using Bash",
					"video": "",
					"path": ""
				},
				{
					"slug": "summary",
					"name": "Module 102 Summary",
					"video": "",
					"path": ""
				}
			]
		},
		{
			"number": 103,
			"title": "What You Will Learn in This Course",
			"releaseDate": "2023-04-03",
			"updatedDate": "2023-04-03",
			"slts": [
				{
					"id": "103.1",
					"slt": "I can make a contribution to an open source project using git."
				},
				{
					"id": "103.2",
					"slt": "I can re-use code from existing projects."
				},
				{
					"id": "103.3",
					"slt": "I can ask questions on Cardano Stack Exchange."
				}
			],
			"lessons": [
				{
					"slug": "slts",
					"name": "Student Learning Targets",
					"video": "",
					"path": ""
				},
				{
					"slug": "1031",
					"name": "Lesson 1: Using Git",
					"video": "",
					"path": ""
				},
				{
					"slug": "commit",
					"name": "Commit to Module 103",
					"video": "",
					"path": ""
				},
				{
					"slug": "1032",
					"name": "Lesson 2: Re-using code",
					"video": "",
					"path": ""
				},
				{
					"slug": "1033",
					"name": "Lesson 3: Cardano Stack Exchange",
					"video": "",
					"path": ""
				},
				{
					"slug": "summary",
					"name": "Summary",
					"video": "",
					"path": ""
				}
			]
		},
		{
			"number": 201,
			"title": "Build a Front End Dapp Template",
			"releaseDate": "2023-04-10",
			"updatedDate": "2023-04-10",
			"slts": [
				{
					"id": "201.1",
					"slt": "I can run a Next JS project on my local device."
				},
				{
					"id": "201.2",
					"slt": "I can use Mesh APIs to interact with a browser-wallet like Eternl or Nami."
				},
				{
					"id": "201.3",
					"slt": "I can create a web app that renders differently if a user holds a Cardano token."
				},
				{
					"id": "201.4",
					"slt": "I can query the blockchain with GraphQL and Koios."
				},
				{
					"id": "201.5",
					"slt": "I can use git to create a feature branch and submit a merge request."
				}
			],
			"lessons": [
				{
					"slug": "slts",
					"name": "Student Learning Targets",
					"video": "",
					"path": ""
				},
				{
					"slug": "2011",
					"name": "Lesson 1: Run a NextJS project",
					"video": "",
					"path": ""
				},
				{
					"slug": "2012",
					"name": "Lesson 2: Mesh CardanoWallet",
					"video": "",
					"path": ""
				},
				{
					"slug": "2013",
					"name": "Lesson 3: Conditional Rendering",
					"video": "",
					"path": ""
				},
				{
					"slug": "2014",
					"name": "Lesson 4: Queries",
					"video": "",
					"path": ""
				},
				{
					"slug": "2015",
					"name": "Lesson 5: Contribute",
					"video": "",
					"path": ""
				},
				{
					"slug": "commit",
					"name": "Commit to 201",
					"video": "",
					"path": ""
				},
				{
					"slug": "summary",
					"name": "Summary",
					"video": "",
					"path": ""
				}
			]
		},
		{
			"number": 202,
			"title": "Five Ways to Mint a Token",
			"releaseDate": "2023-04-24",
			"updatedDate": "2023-04-24",
			"slts": [
				{
					"id": "202.1",
					"slt": "I can mint native assets with GameChanger Wallet."
				},
				{
					"id": "202.2",
					"slt": "I can mint native assets with native scripts using cardano-cli."
				},
				{
					"id": "202.3",
					"slt": "I can mint a Cardano native asset using Mesh APIs."
				},
				{
					"id": "202.4",
					"slt": "I can mint a native asset using a Plutus Minting script compiled from PlutusTx."
				},
				{
					"id": "202.5",
					"slt": "I can mint a native asset using a Plutus Minting script compiled from Aiken."
				}
			],
			"lessons": [
				{
					"slug": "slts",
					"name": "Student Learning Targets",
					"video": "",
					"path": ""
				},
				{
					"slug": "2021",
					"name": "Lesson 1: Minting with GameChanger",
					"video": "",
					"path": ""
				},
				{
					"slug": "2022",
					"name": "Lesson 2: Minting with cardano-cli",
					"video": "",
					"path": ""
				},
				{
					"slug": "2023",
					"name": "Lesson 3: Minting native assets with Mesh",
					"video": "",
					"path": ""
				},
				{
					"slug": "2024",
					"name": "Lesson 4: Write a minting validator in PlutusTx",
					"video": "",
					"path": ""
				},
				{
					"slug": "2025",
					"name": "Lesson 5: Write a minting validator in Aiken",
					"video": "",
					"path": ""
				},
				{
					"slug": "assignment2021",
					"name": "Mastery Assignment: Mint a Token with Plutus",
					"video": "",
					"path": ""
				},
				{
					"slug": "summary",
					"name": "Summary",
					"video": "",
					"path": ""
				}
			]
		},
		{
			"number": 203,
			"title": "Three Ways to Mint an NFT",
			"releaseDate": "2023-05-01",
			"updatedDate": "2023-05-01",
			"slts": [
				{
					"id": "203.1",
					"slt": "I can add metadata to a Cardano transaction."
				},
				{
					"id": "203.2",
					"slt": "I can create a Cardano NFT that adheres to CIP-25 standards."
				},
				{
					"id": "203.3",
					"slt": "I know where to learn more about Cardano Improvement Proposals."
				},
				{
					"id": "203.4",
					"slt": "I can contribute to new standards in this development ecosystem."
				}
			],
			"lessons": [
				{
					"slug": "slts",
					"name": "Student Learning Targets",
					"video": "",
					"path": ""
				},
				{
					"slug": "2031",
					"name": "Lesson 1: Transaction Metadata",
					"video": "",
					"path": ""
				},
				{
					"slug": "2032",
					"name": "Lesson 2: Cardano NFTs",
					"video": "",
					"path": ""
				},
				{
					"slug": "assignment2031",
					"name": "Assignment: Mint a PPBL 2023 NFT",
					"video": "",
					"path": ""
				},
				{
					"slug": "nft-gallery",
					"name": "PPBL NFT Gallery",
					"video": "",
					"path": ""
				},
				{
					"slug": "2033",
					"name": "Lesson 3: Cardano Improvement Proposals",
					"video": "",
					"path": ""
				},
				{
					"slug": "2034",
					"name": "Lesson 4: Contribute to New Standards",
					"video": "",
					"path": ""
				},
				{
					"slug": "summary",
					"name": "Summary",
					"video": "",
					"path": ""
				}
			]
		},
		{
			"number": 204,
			"title": "PPBL Faucet Project",
			"releaseDate": "2023-05-08",
			"updatedDate": "2023-08-04",
			"slts": [
				{
					"id": "204.1",
					"slt": "I can deploy an instance of a Plutus script with custom parameters"
				},
				{
					"id": "204.2",
					"slt": "I can contribute to a headless, decentralized application."
				}
			],
			"lessons": [
				{
					"slug": "slts",
					"name": "Student Learning Targets",
					"video": "",
					"path": "204-SLTs"
				},
				{
					"slug": "project-step-01",
					"name": "Step 1: Compile Parameterized Plutus Script",
					"video": "",
					"path": "ProjectStep01"
				},
				{
					"slug": "project-step-02",
					"name": "Step 2: Deploy a Reference Script",
					"video": "",
					"path": "ProjectStep02"
				},
				{
					"slug": "project-step-03",
					"name": "Step 3: Add Tokens to Faucet",
					"video": "",
					"path": "ProjectStep03"
				},
				{
					"slug": "project-step-04",
					"name": "Step 4: Test an Unlocking Tx",
					"video": "",
					"path": "ProjectStep04"
				},
				{
					"slug": "project-step-05",
					"name": "Step 5: Register with Aggregator",
					"video": "",
					"path": "ProjectStep05"
				},
				{
					"slug": "project-step-06",
					"name": "Step 6: Add CBOR to this Repo",
					"video": "",
					"path": "ProjectStep06"
				},
				{
					"slug": "faucet-aggregator",
					"name": "PPBL Faucet Aggregator",
					"video": "",
					"path": "FaucetAggregator"
				},
				{
					"slug": "commit",
					"name": "Commit to Module 204",
					"video": "",
					"path": "Commit204"
				},
				{
					"slug": "summary",
					"name": "BBK Summary",
					"video": "",
					"path": "Summary204"
				}
			]
		},
		{
			"number": 301,
			"title": "Writing and Using Plutus Validators",
			"releaseDate": "2023-09-11",
			"updatedDate": "2023-09-11",
			"slts": [
				{
					"id": "301.1",
					"slt": "I can write a Plutus Spending validator."
				},
				{
					"id": "301.2",
					"slt": "I know enough haskell to understand some common validator design patterns."
				},
				{
					"id": "301.3",
					"slt": "I understand how Datum is used in Plutus validators."
				},
				{
					"id": "301.4",
					"slt": "I understand how Redeemers are used in Plutus validators."
				}
			],
			"lessons": [
				{
					"slug": "slts",
					"name": "Student Learning Targets",
					"video": "",
					"path": ""
				},
				{
					"slug": "3011",
					"name": "Lesson 1: Plutus Spending Validators",
					"video": "",
					"path": "3011"
				},
				{
					"slug": "3012",
					"name": "Lesson 2: Learning Haskell",
					"video": "",
					"path": "3012"
				},
				{
					"slug": "3013",
					"name": "Lesson 3: Designing and Using a Datum",
					"video": "",
					"path": "3013"
				},
				{
					"slug": "3014",
					"name": "Lesson 4: Designing and Using a Redeemer",
					"video": "",
					"path": "3014"
				},
				{
					"slug": "assignment301",
					"name": "Assignment 301",
					"video": "",
					"path": ""
				}
			]
		},
		{
			"number": 302,
			"title": "On-Chain Essentials: Plutus",
			"releaseDate": "2023-09-18",
			"updatedDate": "2023-09-18",
			"slts": [
				{
					"id": "302.1",
					"slt": "I can plan and implement my own Plutus contracts"
				},
				{
					"id": "302.2",
					"slt": "I can create, update and maintain a Plutus project."
				},
				{
					"id": "302.3",
					"slt": "I understand how time works on Plutus (POSIXTime) and Ledger (Slot Number)."
				}
			],
			"lessons": [
				{
					"slug": "slts",
					"name": "Student Learning Targets",
					"video": "",
					"path": ""
				},
				{
					"slug": "3021",
					"name": "Lesson 1: Plan a Plutus Contract",
					"video": "",
					"path": "3021"
				},
				{
					"slug": "3022",
					"name": "Lesson 2: Create, Update and Maintain a Plutus Project",
					"video": "",
					"path": "3022"
				},
				{
					"slug": "3023",
					"name": "Lesson 3: Time on Plutus and Ledger",
					"video": "",
					"path": "3023"
				},
				{
					"slug": "assignment302",
					"name": "Assignment 302",
					"video": "",
					"path": ""
				}
			]
		},
		{
			"number": 303,
			"title": "On-Chain Essentials: Aiken",
			"releaseDate": "2023-09-26",
			"updatedDate": "2023-09-26",
			"slts": [
				{
					"id": "303.1",
					"slt": "I can navigate the Aiken development environment, and know where to find help."
				},
				{
					"id": "303.2",
					"slt": "I can can implement helper functions in Aiken."
				},
				{
					"id": "303.3",
					"slt": "I can write a custom minting validator in Aiken."
				},
				{
					"id": "303.4",
					"slt": "I can write a spending validator script using Aiken."
				}
			],
			"lessons": [
				{
					"slug": "slts",
					"name": "Student Learning Targets",
					"video": "",
					"path": ""
				},
				{
					"slug": "3031",
					"name": "Lesson 1: Resources + Commands",
					"video": "",
					"path": ""
				},
				{
					"slug": "3032",
					"name": "Lesson 2: Control Flow",
					"video": "",
					"path": ""
				},
				{
					"slug": "3033",
					"name": "Lesson 3: The Minter Validator",
					"video": "",
					"path": ""
				},
				{
					"slug": "3034",
					"name": "Lesson 4: The Mini-Faucet Validator",
					"video": "",
					"path": ""
				}
			]
		},
		{
			"number": 304,
			"title": "On-Chain Essentials: Plu-ts",
			"releaseDate": "2023-10",
			"updatedDate": "2023-10",
			"slts": [
				{
					"id": "304.1",
					"slt": "I can write a spending validator in plu-ts."
				},
				{
					"id": "304.2",
					"slt": "I can handle datum in plu-ts."
				},
				{
					"id": "304.3",
					"slt": "I can handle redeemer in plu-ts."
				},
				{
					"id": "304.4",
					"slt": "I can compile parameterized validators on the fly."
				},
				{
					"id": "304.5",
					"slt": "I can use plu-ts to evaluate validation logic in a smart contract transaction directly in my dapp."
				}
			],
			"lessons": [
				{
					"slug": "slts",
					"name": "Student Learning Targets",
					"video": "",
					"path": ""
				},
				{
					"slug": "3041",
					"name": "Lesson 1",
					"video": "",
					"path": ""
				},
				{
					"slug": "3042",
					"name": "Lesson 2",
					"video": "",
					"path": ""
				},
				{
					"slug": "3043",
					"name": "Lesson 3",
					"video": "",
					"path": ""
				},
				{
					"slug": "3044",
					"name": "Lesson 4",
					"video": "",
					"path": ""
				},
				{
					"slug": "3045",
					"name": "Lesson 5",
					"video": "",
					"path": ""
				}
			]
		},
		{
			"number": 305,
			"title": "In-depth with MeshSDK",
			"releaseDate": "2023-10",
			"updatedDate": "2023-10",
			"slts": [
				{
					"id": "305.1",
					"slt": "I have setup my development environment for web3 development."
				},
				{
					"id": "305.2",
					"slt": "I can start from a Mesh starter kit and deploy the app in production."
				},
				{
					"id": "305.3",
					"slt": "I can interact with user's Browser Wallet with Mesh UI component and hooks."
				},
				{
					"id": "305.4",
					"slt": "I can create transactions to interact with smart contracts and retrieve relevant UTXOs from the script and use it as reference inputs."
				},
				{
					"id": "305.5",
					"slt": "I can build UI interaction to trigger transactions, and listen for transaction status."
				}
			],
			"lessons": [
				{
					"slug": "slts",
					"name": "Student Learning Targets",
					"video": "",
					"path": "slts"
				},
				{
					"slug": "3051",
					"name": "Lesson 1 - Development environment setup",
					"video": "",
					"path": "1"
				},
				{
					"slug": "3052",
					"name": "Lesson 2 - From start kits to live deployment",
					"video": "",
					"path": "2"
				},
				{
					"slug": "3053",
					"name": "Lesson 3 - Interact with wallet and hooks",
					"video": "",
					"path": "3"
				},
				{
					"slug": "3054",
					"name": "Lesson 4 - Transactions, smart contracts, and UTXOs",
					"video": "",
					"path": "4"
				},
				{
					"slug": "3055",
					"name": "Lesson 5 - User interface and providers",
					"video": "",
					"path": "5"
				}
			]
		},
		{
			"number": 306,
			"title": "Off-Chain Essentials: Transactions, UI, and Queries",
			"releaseDate": "2023-10",
			"updatedDate": "2023-10",
			"slts": [
				{
					"id": "306.1",
					"slt": "I can make programmatic queries of historical transactions using Koios and GraphQL."
				},
				{
					"id": "306.2",
					"slt": "I can create user interfaces which enable the user to interact with the blockchain by forming appropriate transactions for some interaction."
				},
				{
					"id": "306.3",
					"slt": "I can use Kupo to create an index of on-chain data."
				}
			],
			"lessons": [
				{
					"slug": "slts",
					"name": "Student Learning Targets",
					"video": "",
					"path": ""
				},
				{
					"slug": "3061",
					"name": "Lesson 1",
					"video": "",
					"path": ""
				},
				{
					"slug": "3062",
					"name": "Lesson 2",
					"video": "",
					"path": ""
				},
				{
					"slug": "3063",
					"name": "Lesson 3",
					"video": "",
					"path": ""
				}
			]
		},
		{
			"number": 307,
			"title": "Intro to Testing and Optimization",
			"releaseDate": "2023-10",
			"updatedDate": "2023-10",
			"slts": [
				{
					"id": "307.1",
					"slt": "I can run tests using shell, nix and cabal."
				},
				{
					"id": "307.2",
					"slt": "I can express a property in QuickCheck"
				},
				{
					"id": "307.3",
					"slt": "I can explain how CI adds value to a project team."
				},
				{
					"id": "307.4",
					"slt": "I can explain the outcomes of verification and audit."
				},
				{
					"id": "307.5",
					"slt": "I can test a validation script written in Aiken."
				}
			],
			"lessons": [
				{
					"slug": "slts",
					"name": "Student Learning Targets",
					"video": "",
					"path": ""
				},
				{
					"slug": "3071",
					"name": "Lesson 1",
					"video": "",
					"path": ""
				},
				{
					"slug": "3072",
					"name": "Lesson 2",
					"video": "",
					"path": ""
				},
				{
					"slug": "3073",
					"name": "Lesson 3",
					"video": "",
					"path": ""
				},
				{
					"slug": "3074",
					"name": "Lesson 4",
					"video": "",
					"path": ""
				},
				{
					"slug": "3075",
					"name": "Lesson 5",
					"video": "",
					"path": ""
				}
			]
		}
	]
}